{
    "name": "Clientes",
    "alias": "clientes",
    "description": "",
    "keywords": [],
    "active": 1,
    "order": 4,
    "providers": [
        "App\\Modules\\Clientes\\Providers\\ClientesServiceProvider"
    ],
    "aliases": {},
    "files": [
        "start.php"
    ],
    "requires": [
        "Base"
    ]
}
