{
    "name": "Servicios",
    "alias": "servicios",
    "description": "",
    "keywords": [],
    "active": 1,
    "order": 5,
    "providers": [
        "App\\Modules\\Servicios\\Providers\\ServiciosServiceProvider"
    ],
    "aliases": {},
    "files": [
        "start.php"
    ],
    "requires": []
}
